<?xml version="1.0" encoding="UTF-8"?>
<svg width="32px" height="32px" viewBox="0 0 32 32" version="1.1" xmlns="http://www.w3.org/2000/svg" xmlns:xlink="http://www.w3.org/1999/xlink">
    <!-- Generator: Sketch 62 (91390) - https://sketch.com -->
    <title>ic-whatsapp</title>
    <desc>Created with Sketch.</desc>
    <g id="Page-1" stroke="none" stroke-width="1" fill="none" fill-rule="evenodd">
        <g id="ic-whatsapp" fill="#FFFFFF" fill-rule="nonzero">
            <path d="M27.2071429,4.65 C24.2142857,1.65 20.2285714,0 15.9928571,0 C7.25,0 0.135714286,7.11428571 0.135714286,15.8571429 C0.135714286,18.65 0.864285714,21.3785714 2.25,23.7857143 L0,32 L8.40714286,29.7928571 C10.7214286,31.0571429 13.3285714,31.7214286 15.9857143,31.7214286 L15.9928571,31.7214286 C24.7285714,31.7214286 32,24.6071429 32,15.8642857 C32,11.6285714 30.2,7.65 27.2071429,4.65 Z M15.9928571,29.05 C13.6214286,29.05 11.3,28.4142857 9.27857143,27.2142857 L8.8,26.9285714 L3.81428571,28.2357143 L5.14285714,23.3714286 L4.82857143,22.8714286 C3.50714286,20.7714286 2.81428571,18.35 2.81428571,15.8571429 C2.81428571,8.59285714 8.72857143,2.67857143 16,2.67857143 C19.5214286,2.67857143 22.8285714,4.05 25.3142857,6.54285714 C27.8,9.03571429 29.3285714,12.3428571 29.3214535,15.8642857 C29.3214535,23.1357143 23.2571429,29.05 15.9928571,29.05 Z M23.2214286,19.1785714 C22.8285714,18.9785714 20.8785714,18.0214286 20.5142857,17.8928571 C20.15,17.7571429 19.8857143,17.6928571 19.6214286,18.0928571 C19.3571429,18.4928571 18.6,19.3785714 18.3642857,19.65 C18.1357143,19.9142857 17.9,19.95 17.5071429,19.75 C15.1785714,18.5857143 13.65,17.6714286 12.1142857,15.0357143 C11.7071429,14.3357143 12.5214286,14.3857143 13.2785714,12.8714286 C13.4071429,12.6071429 13.3428571,12.3785714 13.2428571,12.1785714 C13.1428571,11.9785714 12.35,10.0285714 12.0214286,9.23571429 C11.7,8.46428571 11.3714286,8.57142857 11.1285714,8.55714286 C10.9,8.54285714 10.6357143,8.54285714 10.3714286,8.54285714 C10.1071429,8.54285714 9.67857143,8.64285714 9.31428571,9.03571429 C8.95,9.43571429 7.92857143,10.3928571 7.92857143,12.3428571 C7.92857143,14.2928571 9.35,16.1785714 9.54285714,16.4428571 C9.74285714,16.7071429 12.3357143,20.7071429 16.3142857,22.4285714 C18.8285714,23.5142857 19.8142857,23.6071429 21.0714286,23.4214286 C21.8357143,23.3071429 23.4142857,22.4642857 23.7428571,21.5357143 C24.0714286,20.6071429 24.0714286,19.8142857 23.9714286,19.65 C23.8785714,19.4714286 23.6142857,19.3714286 23.2214286,19.1785714 Z" id="Shape"></path>
        </g>
    </g>
</svg>